<?xml version="1.0" encoding="utf-8"?>
<!-- Generator: Adobe Illustrator 17.1.0, SVG Export Plug-In . SVG Version: 6.00 Build 0)  -->
<!DOCTYPE svg PUBLIC "-//W3C//DTD SVG 1.1//EN" "http://www.w3.org/Graphics/SVG/1.1/DTD/svg11.dtd">
<svg version="1.1" id="Layer_1" xmlns="http://www.w3.org/2000/svg" xmlns:xlink="http://www.w3.org/1999/xlink" x="0px" y="0px"
	 viewBox="0 0 85.2 94.6" enable-background="new 0 0 85.2 94.6" xml:space="preserve">
<g>
	<path fill="#FFFFFF" d="M84.4,8.4l-7.6-7.6C76.3,0.3,75.7,0,75,0h0c-0.7,0-1.3,0.3-1.8,0.7L28.8,45.3c-0.2,0.2-0.4,0.5-0.6,0.8
		l-5,12.5c-0.4,0.9-0.1,2,0.6,2.7c0.5,0.5,1.1,0.7,1.8,0.7c0.3,0,0.6-0.1,0.9-0.2L39,57c0.3-0.1,0.6-0.3,0.9-0.6l44.5-44.5
		C85.4,10.9,85.4,9.3,84.4,8.4z M36.7,52.5L30,55.2l2.6-6.7L75,6l4.1,4.1L36.7,52.5z"/>
	<path fill="#FFFFFF" d="M64.4,44.2c-2.2,0-4,1.8-4,4v38.4H8V14.7h40.2c2.2,0,4-1.8,4-4s-1.8-4-4-4H4c-2.2,0-4,1.8-4,4v79.9
		c0,2.2,1.8,4,4,4h60.4c2.2,0,4-1.8,4-4V48.2C68.4,46,66.6,44.2,64.4,44.2z"/>
</g>
</svg>
